/home/vkommi2/dynamic-tainting/taint-tracker/public/edit_page.php
&5&

/home/vkommi2/dynamic-tainting/taint-tracker/public/index.php
&12&

/home/vkommi2/dynamic-tainting/taint-tracker/includes/session.php
&12&

/home/vkommi2/dynamic-tainting/taint-tracker/includes/layouts/header.php
&12&

/home/vkommi2/dynamic-tainting/taint-tracker/includes/layouts/footer.php
&12&

/home/vkommi2/dynamic-tainting/taint-tracker/includes/functions.php
&12&

/home/vkommi2/dynamic-tainting/taint-tracker/includes/validation_functions.php
&12&

/home/vkommi2/dynamic-tainting/taint-tracker/includes/header.php
&12&

/home/vkommi2/dynamic-tainting/taint-tracker/includes/footer.php
&12&

/home/vkommi2/dynamic-tainting/taint-tracker/includes/db_connection.php
&12&

