array(2) {
  [0]=>
  object(PhpParser\Node\Expr\Include_)#9 (3) {
    ["expr"]=>
    object(PhpParser\Node\Scalar\String_)#8 (2) {
      ["value"]=>
      string(13) "AspisMain.php"
      ["attributes":protected]=>
      array(2) {
        ["startLine"]=>
        int(1)
        ["endLine"]=>
        int(1)
      }
    }
    ["type"]=>
    int(4)
    ["attributes":protected]=>
    array(2) {
      ["startLine"]=>
      int(1)
      ["endLine"]=>
      int(1)
    }
  }
  [1]=>
  object(PhpParser\Node\Expr\Assign)#53 (3) {
    ["var"]=>
    object(PhpParser\Node\Expr\Variable)#10 (2) {
      ["name"]=>
      string(3) "arr"
      ["attributes":protected]=>
      array(2) {
        ["startLine"]=>
        int(2)
        ["endLine"]=>
        int(2)
      }
    }
    ["expr"]=>
    object(PhpParser\Node\Expr\Array_)#52 (2) {
      ["items"]=>
      array(2) {
        [0]=>
        object(PhpParser\Node\Expr\ArrayItem)#48 (4) {
          ["key"]=>
          NULL
          ["value"]=>
          object(PhpParser\Node\Expr\Array_)#47 (2) {
            ["items"]=>
            array(4) {
              [0]=>
              object(PhpParser\Node\Expr\ArrayItem)#21 (4) {
                ["key"]=>
                object(PhpParser\Node\Scalar\String_)#11 (2) {
                  ["value"]=>
                  string(3) "str"
                  ["attributes":protected]=>
                  array(2) {
                    ["startLine"]=>
                    int(2)
                    ["endLine"]=>
                    int(2)
                  }
                }
                ["value"]=>
                object(PhpParser\Node\Expr\Array_)#20 (2) {
                  ["items"]=>
                  array(3) {
                    [0]=>
                    object(PhpParser\Node\Expr\ArrayItem)#13 (4) {
                      ["key"]=>
                      NULL
                      ["value"]=>
                      object(PhpParser\Node\Scalar\LNumber)#12 (2) {
                        ["value"]=>
                        int(1)
                        ["attributes":protected]=>
                        array(2) {
                          ["startLine"]=>
                          int(2)
                          ["endLine"]=>
                          int(2)
                        }
                      }
                      ["byRef"]=>
                      bool(false)
                      ["attributes":protected]=>
                      array(2) {
                        ["startLine"]=>
                        int(2)
                        ["endLine"]=>
                        int(2)
                      }
                    }
                    [1]=>
                    object(PhpParser\Node\Expr\ArrayItem)#16 (4) {
                      ["key"]=>
                      NULL
                      ["value"]=>
                      object(PhpParser\Node\Expr\ConstFetch)#15 (2) {
                        ["name"]=>
                        object(PhpParser\Node\Name)#14 (2) {
                          ["parts"]=>
                          array(1) {
                            [0]=>
                            string(5) "false"
                          }
                          ["attributes":protected]=>
                          array(2) {
                            ["startLine"]=>
                            int(2)
                            ["endLine"]=>
                            int(2)
                          }
                        }
                        ["attributes":protected]=>
                        array(2) {
                          ["startLine"]=>
                          int(2)
                          ["endLine"]=>
                          int(2)
                        }
                      }
                      ["byRef"]=>
                      bool(false)
                      ["attributes":protected]=>
                      array(2) {
                        ["startLine"]=>
                        int(2)
                        ["endLine"]=>
                        int(2)
                      }
                    }
                    [2]=>
                    object(PhpParser\Node\Expr\ArrayItem)#19 (4) {
                      ["key"]=>
                      NULL
                      ["value"]=>
                      object(PhpParser\Node\Expr\ConstFetch)#18 (2) {
                        ["name"]=>
                        object(PhpParser\Node\Name)#17 (2) {
                          ["parts"]=>
                          array(1) {
                            [0]=>
                            string(5) "false"
                          }
                          ["attributes":protected]=>
                          array(2) {
                            ["startLine"]=>
                            int(2)
                            ["endLine"]=>
                            int(2)
                          }
                        }
                        ["attributes":protected]=>
                        array(2) {
                          ["startLine"]=>
                          int(2)
                          ["endLine"]=>
                          int(2)
                        }
                      }
                      ["byRef"]=>
                      bool(false)
                      ["attributes":protected]=>
                      array(2) {
                        ["startLine"]=>
                        int(2)
                        ["endLine"]=>
                        int(2)
                      }
                    }
                  }
                  ["attributes":protected]=>
                  array(2) {
                    ["startLine"]=>
                    int(2)
                    ["endLine"]=>
                    int(2)
                  }
                }
                ["byRef"]=>
                bool(false)
                ["attributes":protected]=>
                array(2) {
                  ["startLine"]=>
                  int(2)
                  ["endLine"]=>
                  int(2)
                }
              }
              [1]=>
              object(PhpParser\Node\Expr\ArrayItem)#28 (4) {
                ["key"]=>
                NULL
                ["value"]=>
                object(PhpParser\Node\Expr\Array_)#27 (2) {
                  ["items"]=>
                  array(2) {
                    [0]=>
                    object(PhpParser\Node\Expr\ArrayItem)#23 (4) {
                      ["key"]=>
                      NULL
                      ["value"]=>
                      object(PhpParser\Node\Scalar\LNumber)#22 (2) {
                        ["value"]=>
                        int(2)
                        ["attributes":protected]=>
                        array(2) {
                          ["startLine"]=>
                          int(2)
                          ["endLine"]=>
                          int(2)
                        }
                      }
                      ["byRef"]=>
                      bool(false)
                      ["attributes":protected]=>
                      array(2) {
                        ["startLine"]=>
                        int(2)
                        ["endLine"]=>
                        int(2)
                      }
                    }
                    [1]=>
                    object(PhpParser\Node\Expr\ArrayItem)#26 (4) {
                      ["key"]=>
                      NULL
                      ["value"]=>
                      object(PhpParser\Node\Expr\ConstFetch)#25 (2) {
                        ["name"]=>
                        object(PhpParser\Node\Name)#24 (2) {
                          ["parts"]=>
                          array(1) {
                            [0]=>
                            string(5) "false"
                          }
                          ["attributes":protected]=>
                          array(2) {
                            ["startLine"]=>
                            int(2)
                            ["endLine"]=>
                            int(2)
                          }
                        }
                        ["attributes":protected]=>
                        array(2) {
                          ["startLine"]=>
                          int(2)
                          ["endLine"]=>
                          int(2)
                        }
                      }
                      ["byRef"]=>
                      bool(false)
                      ["attributes":protected]=>
                      array(2) {
                        ["startLine"]=>
                        int(2)
                        ["endLine"]=>
                        int(2)
                      }
                    }
                  }
                  ["attributes":protected]=>
                  array(2) {
                    ["startLine"]=>
                    int(2)
                    ["endLine"]=>
                    int(2)
                  }
                }
                ["byRef"]=>
                bool(false)
                ["attributes":protected]=>
                array(2) {
                  ["startLine"]=>
                  int(2)
                  ["endLine"]=>
                  int(2)
                }
              }
              [2]=>
              object(PhpParser\Node\Expr\ArrayItem)#35 (4) {
                ["key"]=>
                NULL
                ["value"]=>
                object(PhpParser\Node\Expr\Array_)#34 (2) {
                  ["items"]=>
                  array(2) {
                    [0]=>
                    object(PhpParser\Node\Expr\ArrayItem)#30 (4) {
                      ["key"]=>
                      NULL
                      ["value"]=>
                      object(PhpParser\Node\Scalar\LNumber)#29 (2) {
                        ["value"]=>
                        int(3)
                        ["attributes":protected]=>
                        array(2) {
                          ["startLine"]=>
                          int(2)
                          ["endLine"]=>
                          int(2)
                        }
                      }
                      ["byRef"]=>
                      bool(false)
                      ["attributes":protected]=>
                      array(2) {
                        ["startLine"]=>
                        int(2)
                        ["endLine"]=>
                        int(2)
                      }
                    }
                    [1]=>
                    object(PhpParser\Node\Expr\ArrayItem)#33 (4) {
                      ["key"]=>
                      NULL
                      ["value"]=>
                      object(PhpParser\Node\Expr\ConstFetch)#32 (2) {
                        ["name"]=>
                        object(PhpParser\Node\Name)#31 (2) {
                          ["parts"]=>
                          array(1) {
                            [0]=>
                            string(5) "false"
                          }
                          ["attributes":protected]=>
                          array(2) {
                            ["startLine"]=>
                            int(2)
                            ["endLine"]=>
                            int(2)
                          }
                        }
                        ["attributes":protected]=>
                        array(2) {
                          ["startLine"]=>
                          int(2)
                          ["endLine"]=>
                          int(2)
                        }
                      }
                      ["byRef"]=>
                      bool(false)
                      ["attributes":protected]=>
                      array(2) {
                        ["startLine"]=>
                        int(2)
                        ["endLine"]=>
                        int(2)
                      }
                    }
                  }
                  ["attributes":protected]=>
                  array(2) {
                    ["startLine"]=>
                    int(2)
                    ["endLine"]=>
                    int(2)
                  }
                }
                ["byRef"]=>
                bool(false)
                ["attributes":protected]=>
                array(2) {
                  ["startLine"]=>
                  int(2)
                  ["endLine"]=>
                  int(2)
                }
              }
              [3]=>
              object(PhpParser\Node\Expr\ArrayItem)#46 (4) {
                ["key"]=>
                object(PhpParser\Node\Scalar\String_)#36 (2) {
                  ["value"]=>
                  string(4) "str2"
                  ["attributes":protected]=>
                  array(2) {
                    ["startLine"]=>
                    int(2)
                    ["endLine"]=>
                    int(2)
                  }
                }
                ["value"]=>
                object(PhpParser\Node\Expr\Array_)#45 (2) {
                  ["items"]=>
                  array(3) {
                    [0]=>
                    object(PhpParser\Node\Expr\ArrayItem)#38 (4) {
                      ["key"]=>
                      NULL
                      ["value"]=>
                      object(PhpParser\Node\Scalar\LNumber)#37 (2) {
                        ["value"]=>
                        int(4)
                        ["attributes":protected]=>
                        array(2) {
                          ["startLine"]=>
                          int(2)
                          ["endLine"]=>
                          int(2)
                        }
                      }
                      ["byRef"]=>
                      bool(false)
                      ["attributes":protected]=>
                      array(2) {
                        ["startLine"]=>
                        int(2)
                        ["endLine"]=>
                        int(2)
                      }
                    }
                    [1]=>
                    object(PhpParser\Node\Expr\ArrayItem)#41 (4) {
                      ["key"]=>
                      NULL
                      ["value"]=>
                      object(PhpParser\Node\Expr\ConstFetch)#40 (2) {
                        ["name"]=>
                        object(PhpParser\Node\Name)#39 (2) {
                          ["parts"]=>
                          array(1) {
                            [0]=>
                            string(5) "false"
                          }
                          ["attributes":protected]=>
                          array(2) {
                            ["startLine"]=>
                            int(2)
                            ["endLine"]=>
                            int(2)
                          }
                        }
                        ["attributes":protected]=>
                        array(2) {
                          ["startLine"]=>
                          int(2)
                          ["endLine"]=>
                          int(2)
                        }
                      }
                      ["byRef"]=>
                      bool(false)
                      ["attributes":protected]=>
                      array(2) {
                        ["startLine"]=>
                        int(2)
                        ["endLine"]=>
                        int(2)
                      }
                    }
                    [2]=>
                    object(PhpParser\Node\Expr\ArrayItem)#44 (4) {
                      ["key"]=>
                      NULL
                      ["value"]=>
                      object(PhpParser\Node\Expr\ConstFetch)#43 (2) {
                        ["name"]=>
                        object(PhpParser\Node\Name)#42 (2) {
                          ["parts"]=>
                          array(1) {
                            [0]=>
                            string(5) "false"
                          }
                          ["attributes":protected]=>
                          array(2) {
                            ["startLine"]=>
                            int(2)
                            ["endLine"]=>
                            int(2)
                          }
                        }
                        ["attributes":protected]=>
                        array(2) {
                          ["startLine"]=>
                          int(2)
                          ["endLine"]=>
                          int(2)
                        }
                      }
                      ["byRef"]=>
                      bool(false)
                      ["attributes":protected]=>
                      array(2) {
                        ["startLine"]=>
                        int(2)
                        ["endLine"]=>
                        int(2)
                      }
                    }
                  }
                  ["attributes":protected]=>
                  array(2) {
                    ["startLine"]=>
                    int(2)
                    ["endLine"]=>
                    int(2)
                  }
                }
                ["byRef"]=>
                bool(false)
                ["attributes":protected]=>
                array(2) {
                  ["startLine"]=>
                  int(2)
                  ["endLine"]=>
                  int(2)
                }
              }
            }
            ["attributes":protected]=>
            array(2) {
              ["startLine"]=>
              int(2)
              ["endLine"]=>
              int(2)
            }
          }
          ["byRef"]=>
          bool(false)
          ["attributes":protected]=>
          array(2) {
            ["startLine"]=>
            int(2)
            ["endLine"]=>
            int(2)
          }
        }
        [1]=>
        object(PhpParser\Node\Expr\ArrayItem)#51 (4) {
          ["key"]=>
          NULL
          ["value"]=>
          object(PhpParser\Node\Expr\ConstFetch)#50 (2) {
            ["name"]=>
            object(PhpParser\Node\Name)#49 (2) {
              ["parts"]=>
              array(1) {
                [0]=>
                string(5) "false"
              }
              ["attributes":protected]=>
              array(2) {
                ["startLine"]=>
                int(2)
                ["endLine"]=>
                int(2)
              }
            }
            ["attributes":protected]=>
            array(2) {
              ["startLine"]=>
              int(2)
              ["endLine"]=>
              int(2)
            }
          }
          ["byRef"]=>
          bool(false)
          ["attributes":protected]=>
          array(2) {
            ["startLine"]=>
            int(2)
            ["endLine"]=>
            int(2)
          }
        }
      }
      ["attributes":protected]=>
      array(2) {
        ["startLine"]=>
        int(2)
        ["endLine"]=>
        int(2)
      }
    }
    ["attributes":protected]=>
    array(2) {
      ["startLine"]=>
      int(2)
      ["endLine"]=>
      int(2)
    }
  }
}
