array(3) {
  [0]=>
  object(PhpParser\Node\Expr\Include_)#9 (3) {
    ["expr"]=>
    object(PhpParser\Node\Scalar\String_)#8 (2) {
      ["value"]=>
      string(13) "AspisMain.php"
      ["attributes":protected]=>
      array(2) {
        ["startLine"]=>
        int(1)
        ["endLine"]=>
        int(1)
      }
    }
    ["type"]=>
    int(4)
    ["attributes":protected]=>
    array(2) {
      ["startLine"]=>
      int(1)
      ["endLine"]=>
      int(1)
    }
  }
  [1]=>
  object(PhpParser\Node\Stmt\Function_)#19 (6) {
    ["byRef"]=>
    bool(false)
    ["name"]=>
    string(1) "f"
    ["params"]=>
    array(1) {
      [0]=>
      object(PhpParser\Node\Param)#10 (6) {
        ["type"]=>
        NULL
        ["byRef"]=>
        bool(false)
        ["variadic"]=>
        bool(false)
        ["name"]=>
        string(1) "a"
        ["default"]=>
        NULL
        ["attributes":protected]=>
        array(2) {
          ["startLine"]=>
          int(2)
          ["endLine"]=>
          int(2)
        }
      }
    }
    ["returnType"]=>
    NULL
    ["stmts"]=>
    array(1) {
      [0]=>
      object(PhpParser\Node\Stmt\Echo_)#18 (2) {
        ["exprs"]=>
        array(1) {
          [0]=>
          object(PhpParser\Node\Expr\FuncCall)#17 (3) {
            ["name"]=>
            object(PhpParser\Node\Name)#11 (2) {
              ["parts"]=>
              array(1) {
                [0]=>
                string(7) "deAspis"
              }
              ["attributes":protected]=>
              array(2) {
                ["startLine"]=>
                int(3)
                ["endLine"]=>
                int(3)
              }
            }
            ["args"]=>
            array(1) {
              [0]=>
              object(PhpParser\Node\Arg)#16 (4) {
                ["value"]=>
                object(PhpParser\Node\Expr\FuncCall)#15 (3) {
                  ["name"]=>
                  object(PhpParser\Node\Name)#12 (2) {
                    ["parts"]=>
                    array(1) {
                      [0]=>
                      string(15) "AspisPrintGuard"
                    }
                    ["attributes":protected]=>
                    array(2) {
                      ["startLine"]=>
                      int(3)
                      ["endLine"]=>
                      int(3)
                    }
                  }
                  ["args"]=>
                  array(1) {
                    [0]=>
                    object(PhpParser\Node\Arg)#14 (4) {
                      ["value"]=>
                      object(PhpParser\Node\Expr\Variable)#13 (2) {
                        ["name"]=>
                        string(1) "a"
                        ["attributes":protected]=>
                        array(2) {
                          ["startLine"]=>
                          int(3)
                          ["endLine"]=>
                          int(3)
                        }
                      }
                      ["byRef"]=>
                      bool(false)
                      ["unpack"]=>
                      bool(false)
                      ["attributes":protected]=>
                      array(2) {
                        ["startLine"]=>
                        int(3)
                        ["endLine"]=>
                        int(3)
                      }
                    }
                  }
                  ["attributes":protected]=>
                  array(2) {
                    ["startLine"]=>
                    int(3)
                    ["endLine"]=>
                    int(3)
                  }
                }
                ["byRef"]=>
                bool(false)
                ["unpack"]=>
                bool(false)
                ["attributes":protected]=>
                array(2) {
                  ["startLine"]=>
                  int(3)
                  ["endLine"]=>
                  int(3)
                }
              }
            }
            ["attributes":protected]=>
            array(2) {
              ["startLine"]=>
              int(3)
              ["endLine"]=>
              int(3)
            }
          }
        }
        ["attributes":protected]=>
        array(2) {
          ["startLine"]=>
          int(3)
          ["endLine"]=>
          int(3)
        }
      }
    }
    ["attributes":protected]=>
    array(2) {
      ["startLine"]=>
      int(2)
      ["endLine"]=>
      int(4)
    }
  }
  [2]=>
  object(PhpParser\Node\Expr\FuncCall)#30 (3) {
    ["name"]=>
    object(PhpParser\Node\Name)#20 (2) {
      ["parts"]=>
      array(1) {
        [0]=>
        string(1) "f"
      }
      ["attributes":protected]=>
      array(2) {
        ["startLine"]=>
        int(5)
        ["endLine"]=>
        int(5)
      }
    }
    ["args"]=>
    array(1) {
      [0]=>
      object(PhpParser\Node\Arg)#29 (4) {
        ["value"]=>
        object(PhpParser\Node\Expr\Array_)#28 (2) {
          ["items"]=>
          array(2) {
            [0]=>
            object(PhpParser\Node\Expr\ArrayItem)#24 (4) {
              ["key"]=>
              NULL
              ["value"]=>
              object(PhpParser\Node\Expr\BinaryOp\Plus)#23 (3) {
                ["left"]=>
                object(PhpParser\Node\Scalar\LNumber)#21 (2) {
                  ["value"]=>
                  int(1)
                  ["attributes":protected]=>
                  array(2) {
                    ["startLine"]=>
                    int(5)
                    ["endLine"]=>
                    int(5)
                  }
                }
                ["right"]=>
                object(PhpParser\Node\Scalar\LNumber)#22 (2) {
                  ["value"]=>
                  int(1)
                  ["attributes":protected]=>
                  array(2) {
                    ["startLine"]=>
                    int(5)
                    ["endLine"]=>
                    int(5)
                  }
                }
                ["attributes":protected]=>
                array(2) {
                  ["startLine"]=>
                  int(5)
                  ["endLine"]=>
                  int(5)
                }
              }
              ["byRef"]=>
              bool(false)
              ["attributes":protected]=>
              array(2) {
                ["startLine"]=>
                int(5)
                ["endLine"]=>
                int(5)
              }
            }
            [1]=>
            object(PhpParser\Node\Expr\ArrayItem)#27 (4) {
              ["key"]=>
              NULL
              ["value"]=>
              object(PhpParser\Node\Expr\ConstFetch)#26 (2) {
                ["name"]=>
                object(PhpParser\Node\Name)#25 (2) {
                  ["parts"]=>
                  array(1) {
                    [0]=>
                    string(5) "false"
                  }
                  ["attributes":protected]=>
                  array(2) {
                    ["startLine"]=>
                    int(5)
                    ["endLine"]=>
                    int(5)
                  }
                }
                ["attributes":protected]=>
                array(2) {
                  ["startLine"]=>
                  int(5)
                  ["endLine"]=>
                  int(5)
                }
              }
              ["byRef"]=>
              bool(false)
              ["attributes":protected]=>
              array(2) {
                ["startLine"]=>
                int(5)
                ["endLine"]=>
                int(5)
              }
            }
          }
          ["attributes":protected]=>
          array(2) {
            ["startLine"]=>
            int(5)
            ["endLine"]=>
            int(5)
          }
        }
        ["byRef"]=>
        bool(false)
        ["unpack"]=>
        bool(false)
        ["attributes":protected]=>
        array(2) {
          ["startLine"]=>
          int(5)
          ["endLine"]=>
          int(5)
        }
      }
    }
    ["attributes":protected]=>
    array(2) {
      ["startLine"]=>
      int(5)
      ["endLine"]=>
      int(5)
    }
  }
}
