array(2) {
  [0]=>
  object(PhpParser\Node\Expr\Include_)#9 (3) {
    ["expr"]=>
    object(PhpParser\Node\Scalar\String_)#8 (2) {
      ["value"]=>
      string(13) "AspisMain.php"
      ["attributes":protected]=>
      array(2) {
        ["startLine"]=>
        int(1)
        ["endLine"]=>
        int(1)
      }
    }
    ["type"]=>
    int(4)
    ["attributes":protected]=>
    array(2) {
      ["startLine"]=>
      int(1)
      ["endLine"]=>
      int(1)
    }
  }
  [1]=>
  object(PhpParser\Node\Expr\Assign)#19 (3) {
    ["var"]=>
    object(PhpParser\Node\Expr\Variable)#10 (2) {
      ["name"]=>
      string(1) "x"
      ["attributes":protected]=>
      array(2) {
        ["startLine"]=>
        int(2)
        ["endLine"]=>
        int(2)
      }
    }
    ["expr"]=>
    object(PhpParser\Node\Expr\Array_)#18 (2) {
      ["items"]=>
      array(2) {
        [0]=>
        object(PhpParser\Node\Expr\ArrayItem)#14 (4) {
          ["key"]=>
          NULL
          ["value"]=>
          object(PhpParser\Node\Expr\BinaryOp\Plus)#13 (3) {
            ["left"]=>
            object(PhpParser\Node\Scalar\LNumber)#11 (2) {
              ["value"]=>
              int(1)
              ["attributes":protected]=>
              array(2) {
                ["startLine"]=>
                int(2)
                ["endLine"]=>
                int(2)
              }
            }
            ["right"]=>
            object(PhpParser\Node\Scalar\LNumber)#12 (2) {
              ["value"]=>
              int(2)
              ["attributes":protected]=>
              array(2) {
                ["startLine"]=>
                int(2)
                ["endLine"]=>
                int(2)
              }
            }
            ["attributes":protected]=>
            array(2) {
              ["startLine"]=>
              int(2)
              ["endLine"]=>
              int(2)
            }
          }
          ["byRef"]=>
          bool(false)
          ["attributes":protected]=>
          array(2) {
            ["startLine"]=>
            int(2)
            ["endLine"]=>
            int(2)
          }
        }
        [1]=>
        object(PhpParser\Node\Expr\ArrayItem)#17 (4) {
          ["key"]=>
          NULL
          ["value"]=>
          object(PhpParser\Node\Expr\ConstFetch)#16 (2) {
            ["name"]=>
            object(PhpParser\Node\Name)#15 (2) {
              ["parts"]=>
              array(1) {
                [0]=>
                string(5) "false"
              }
              ["attributes":protected]=>
              array(2) {
                ["startLine"]=>
                int(2)
                ["endLine"]=>
                int(2)
              }
            }
            ["attributes":protected]=>
            array(2) {
              ["startLine"]=>
              int(2)
              ["endLine"]=>
              int(2)
            }
          }
          ["byRef"]=>
          bool(false)
          ["attributes":protected]=>
          array(2) {
            ["startLine"]=>
            int(2)
            ["endLine"]=>
            int(2)
          }
        }
      }
      ["attributes":protected]=>
      array(2) {
        ["startLine"]=>
        int(2)
        ["endLine"]=>
        int(2)
      }
    }
    ["attributes":protected]=>
    array(2) {
      ["startLine"]=>
      int(2)
      ["endLine"]=>
      int(2)
    }
  }
}
