array(1) {
  [0]=>
  object(PhpParser\Node\Expr\Include_)#9 (3) {
    ["expr"]=>
    object(PhpParser\Node\Scalar\String_)#8 (2) {
      ["value"]=>
      string(13) "AspisMain.php"
      ["attributes":protected]=>
      array(2) {
        ["startLine"]=>
        int(1)
        ["endLine"]=>
        int(1)
      }
    }
    ["type"]=>
    int(4)
    ["attributes":protected]=>
    array(2) {
      ["startLine"]=>
      int(1)
      ["endLine"]=>
      int(1)
    }
  }
}
