array(2) {
  [0]=>
  object(PhpParser\Node\Stmt\Function_)#25 (6) {
    ["byRef"]=>
    bool(false)
    ["name"]=>
    string(1) "f"
    ["params"]=>
    array(3) {
      [0]=>
      object(PhpParser\Node\Param)#8 (6) {
        ["type"]=>
        NULL
        ["byRef"]=>
        bool(false)
        ["variadic"]=>
        bool(false)
        ["name"]=>
        string(1) "a"
        ["default"]=>
        NULL
        ["attributes":protected]=>
        array(2) {
          ["startLine"]=>
          int(2)
          ["endLine"]=>
          int(2)
        }
      }
      [1]=>
      object(PhpParser\Node\Param)#9 (6) {
        ["type"]=>
        NULL
        ["byRef"]=>
        bool(false)
        ["variadic"]=>
        bool(false)
        ["name"]=>
        string(1) "b"
        ["default"]=>
        NULL
        ["attributes":protected]=>
        array(2) {
          ["startLine"]=>
          int(2)
          ["endLine"]=>
          int(2)
        }
      }
      [2]=>
      object(PhpParser\Node\Param)#10 (6) {
        ["type"]=>
        NULL
        ["byRef"]=>
        bool(false)
        ["variadic"]=>
        bool(false)
        ["name"]=>
        string(1) "c"
        ["default"]=>
        NULL
        ["attributes":protected]=>
        array(2) {
          ["startLine"]=>
          int(2)
          ["endLine"]=>
          int(2)
        }
      }
    }
    ["returnType"]=>
    NULL
    ["stmts"]=>
    array(2) {
      [0]=>
      object(PhpParser\Node\Stmt\Echo_)#16 (2) {
        ["exprs"]=>
        array(1) {
          [0]=>
          object(PhpParser\Node\Expr\BinaryOp\Plus)#15 (3) {
            ["left"]=>
            object(PhpParser\Node\Expr\BinaryOp\Plus)#13 (3) {
              ["left"]=>
              object(PhpParser\Node\Expr\Variable)#11 (2) {
                ["name"]=>
                string(1) "a"
                ["attributes":protected]=>
                array(2) {
                  ["startLine"]=>
                  int(3)
                  ["endLine"]=>
                  int(3)
                }
              }
              ["right"]=>
              object(PhpParser\Node\Expr\Variable)#12 (2) {
                ["name"]=>
                string(1) "b"
                ["attributes":protected]=>
                array(2) {
                  ["startLine"]=>
                  int(3)
                  ["endLine"]=>
                  int(3)
                }
              }
              ["attributes":protected]=>
              array(2) {
                ["startLine"]=>
                int(3)
                ["endLine"]=>
                int(3)
              }
            }
            ["right"]=>
            object(PhpParser\Node\Expr\Variable)#14 (2) {
              ["name"]=>
              string(1) "c"
              ["attributes":protected]=>
              array(2) {
                ["startLine"]=>
                int(3)
                ["endLine"]=>
                int(3)
              }
            }
            ["attributes":protected]=>
            array(2) {
              ["startLine"]=>
              int(3)
              ["endLine"]=>
              int(3)
            }
          }
        }
        ["attributes":protected]=>
        array(2) {
          ["startLine"]=>
          int(3)
          ["endLine"]=>
          int(3)
        }
      }
      [1]=>
      object(PhpParser\Node\Stmt\Echo_)#24 (2) {
        ["exprs"]=>
        array(1) {
          [0]=>
          object(PhpParser\Node\Expr\BinaryOp\Plus)#23 (3) {
            ["left"]=>
            object(PhpParser\Node\Expr\BinaryOp\Plus)#21 (3) {
              ["left"]=>
              object(PhpParser\Node\Expr\BinaryOp\Plus)#19 (3) {
                ["left"]=>
                object(PhpParser\Node\Expr\Variable)#17 (2) {
                  ["name"]=>
                  string(1) "a"
                  ["attributes":protected]=>
                  array(2) {
                    ["startLine"]=>
                    int(4)
                    ["endLine"]=>
                    int(4)
                  }
                }
                ["right"]=>
                object(PhpParser\Node\Expr\Variable)#18 (2) {
                  ["name"]=>
                  string(1) "b"
                  ["attributes":protected]=>
                  array(2) {
                    ["startLine"]=>
                    int(4)
                    ["endLine"]=>
                    int(4)
                  }
                }
                ["attributes":protected]=>
                array(2) {
                  ["startLine"]=>
                  int(4)
                  ["endLine"]=>
                  int(4)
                }
              }
              ["right"]=>
              object(PhpParser\Node\Expr\Variable)#20 (2) {
                ["name"]=>
                string(1) "c"
                ["attributes":protected]=>
                array(2) {
                  ["startLine"]=>
                  int(4)
                  ["endLine"]=>
                  int(4)
                }
              }
              ["attributes":protected]=>
              array(2) {
                ["startLine"]=>
                int(4)
                ["endLine"]=>
                int(4)
              }
            }
            ["right"]=>
            object(PhpParser\Node\Scalar\LNumber)#22 (2) {
              ["value"]=>
              int(1)
              ["attributes":protected]=>
              array(2) {
                ["startLine"]=>
                int(4)
                ["endLine"]=>
                int(4)
              }
            }
            ["attributes":protected]=>
            array(2) {
              ["startLine"]=>
              int(4)
              ["endLine"]=>
              int(4)
            }
          }
        }
        ["attributes":protected]=>
        array(2) {
          ["startLine"]=>
          int(4)
          ["endLine"]=>
          int(4)
        }
      }
    }
    ["attributes":protected]=>
    array(2) {
      ["startLine"]=>
      int(2)
      ["endLine"]=>
      int(5)
    }
  }
  [1]=>
  object(PhpParser\Node\Expr\FuncCall)#33 (3) {
    ["name"]=>
    object(PhpParser\Node\Name)#26 (2) {
      ["parts"]=>
      array(1) {
        [0]=>
        string(1) "f"
      }
      ["attributes":protected]=>
      array(2) {
        ["startLine"]=>
        int(7)
        ["endLine"]=>
        int(7)
      }
    }
    ["args"]=>
    array(3) {
      [0]=>
      object(PhpParser\Node\Arg)#28 (4) {
        ["value"]=>
        object(PhpParser\Node\Scalar\LNumber)#27 (2) {
          ["value"]=>
          int(1)
          ["attributes":protected]=>
          array(2) {
            ["startLine"]=>
            int(7)
            ["endLine"]=>
            int(7)
          }
        }
        ["byRef"]=>
        bool(false)
        ["unpack"]=>
        bool(false)
        ["attributes":protected]=>
        array(2) {
          ["startLine"]=>
          int(7)
          ["endLine"]=>
          int(7)
        }
      }
      [1]=>
      object(PhpParser\Node\Arg)#30 (4) {
        ["value"]=>
        object(PhpParser\Node\Scalar\LNumber)#29 (2) {
          ["value"]=>
          int(2)
          ["attributes":protected]=>
          array(2) {
            ["startLine"]=>
            int(7)
            ["endLine"]=>
            int(7)
          }
        }
        ["byRef"]=>
        bool(false)
        ["unpack"]=>
        bool(false)
        ["attributes":protected]=>
        array(2) {
          ["startLine"]=>
          int(7)
          ["endLine"]=>
          int(7)
        }
      }
      [2]=>
      object(PhpParser\Node\Arg)#32 (4) {
        ["value"]=>
        object(PhpParser\Node\Scalar\LNumber)#31 (2) {
          ["value"]=>
          int(3)
          ["attributes":protected]=>
          array(2) {
            ["startLine"]=>
            int(7)
            ["endLine"]=>
            int(7)
          }
        }
        ["byRef"]=>
        bool(false)
        ["unpack"]=>
        bool(false)
        ["attributes":protected]=>
        array(2) {
          ["startLine"]=>
          int(7)
          ["endLine"]=>
          int(7)
        }
      }
    }
    ["attributes":protected]=>
    array(2) {
      ["startLine"]=>
      int(7)
      ["endLine"]=>
      int(7)
    }
  }
}
