<?xml version="1.0" encoding="UTF-8"?>
<AST xmlns:node="http://nikic.github.com/PHPParser/XML/node" xmlns:subNode="http://nikic.github.com/PHPParser/XML/subNode" xmlns:attribute="http://nikic.github.com/PHPParser/XML/attribute" xmlns:scalar="http://nikic.github.com/PHPParser/XML/scalar">
	<scalar:array>
		<node:Stmt_Class>
			<attribute:startLine>
				<scalar:int>3</scalar:int>
			</attribute:startLine>
			<attribute:endLine>
				<scalar:int>7</scalar:int>
			</attribute:endLine>
			<subNode:type>
				<scalar:int>0</scalar:int>
			</subNode:type>
			<subNode:extends>
				<scalar:null/>
			</subNode:extends>
			<subNode:implements>
				<scalar:array/>
			</subNode:implements>
			<subNode:name>
				<scalar:string>MyClass</scalar:string>
			</subNode:name>
			<subNode:stmts>
				<scalar:array>
					<node:Stmt_Property>
						<attribute:startLine>
							<scalar:int>5</scalar:int>
						</attribute:startLine>
						<attribute:endLine>
							<scalar:int>5</scalar:int>
						</attribute:endLine>
						<subNode:type>
							<scalar:int>2</scalar:int>
						</subNode:type>
						<subNode:props>
							<scalar:array>
								<node:Stmt_PropertyProperty>
									<attribute:startLine>
										<scalar:int>5</scalar:int>
									</attribute:startLine>
									<attribute:endLine>
										<scalar:int>5</scalar:int>
									</attribute:endLine>
									<subNode:name>
										<scalar:string>prop1</scalar:string>
									</subNode:name>
									<subNode:default>
										<node:Scalar_String>
											<attribute:startLine>
												<scalar:int>5</scalar:int>
											</attribute:startLine>
											<attribute:endLine>
												<scalar:int>5</scalar:int>
											</attribute:endLine>
											<subNode:value>
												<scalar:string>Hello Class Property World!</scalar:string>
											</subNode:value>
										</node:Scalar_String>
									</subNode:default>
								</node:Stmt_PropertyProperty>
							</scalar:array>
						</subNode:props>
					</node:Stmt_Property>
					<node:Stmt_Property>
						<attribute:startLine>
							<scalar:int>6</scalar:int>
						</attribute:startLine>
						<attribute:endLine>
							<scalar:int>6</scalar:int>
						</attribute:endLine>
						<subNode:type>
							<scalar:int>12</scalar:int>
						</subNode:type>
						<subNode:props>
							<scalar:array>
								<node:Stmt_PropertyProperty>
									<attribute:startLine>
										<scalar:int>6</scalar:int>
									</attribute:startLine>
									<attribute:endLine>
										<scalar:int>6</scalar:int>
									</attribute:endLine>
									<subNode:name>
										<scalar:string>prop2</scalar:string>
									</subNode:name>
									<subNode:default>
										<node:Scalar_String>
											<attribute:startLine>
												<scalar:int>6</scalar:int>
											</attribute:startLine>
											<attribute:endLine>
												<scalar:int>6</scalar:int>
											</attribute:endLine>
											<subNode:value>
												<scalar:string>Hello again!</scalar:string>
											</subNode:value>
										</node:Scalar_String>
									</subNode:default>
								</node:Stmt_PropertyProperty>
							</scalar:array>
						</subNode:props>
					</node:Stmt_Property>
				</scalar:array>
			</subNode:stmts>
		</node:Stmt_Class>
		<node:Expr_Assign>
			<attribute:startLine>
				<scalar:int>9</scalar:int>
			</attribute:startLine>
			<attribute:endLine>
				<scalar:int>9</scalar:int>
			</attribute:endLine>
			<subNode:var>
				<node:Expr_Variable>
					<attribute:startLine>
						<scalar:int>9</scalar:int>
					</attribute:startLine>
					<attribute:endLine>
						<scalar:int>9</scalar:int>
					</attribute:endLine>
					<subNode:name>
						<scalar:string>obj</scalar:string>
					</subNode:name>
				</node:Expr_Variable>
			</subNode:var>
			<subNode:expr>
				<node:Expr_New>
					<attribute:startLine>
						<scalar:int>9</scalar:int>
					</attribute:startLine>
					<attribute:endLine>
						<scalar:int>9</scalar:int>
					</attribute:endLine>
					<subNode:class>
						<node:Name>
							<attribute:startLine>
								<scalar:int>9</scalar:int>
							</attribute:startLine>
							<attribute:endLine>
								<scalar:int>9</scalar:int>
							</attribute:endLine>
							<subNode:parts>
								<scalar:array>
									<scalar:string>MyClass</scalar:string>
								</scalar:array>
							</subNode:parts>
						</node:Name>
					</subNode:class>
					<subNode:args>
						<scalar:array/>
					</subNode:args>
				</node:Expr_New>
			</subNode:expr>
		</node:Expr_Assign>
		<node:Stmt_Echo>
			<attribute:startLine>
				<scalar:int>10</scalar:int>
			</attribute:startLine>
			<attribute:endLine>
				<scalar:int>10</scalar:int>
			</attribute:endLine>
			<subNode:exprs>
				<scalar:array>
					<node:Expr_PropertyFetch>
						<attribute:startLine>
							<scalar:int>10</scalar:int>
						</attribute:startLine>
						<attribute:endLine>
							<scalar:int>10</scalar:int>
						</attribute:endLine>
						<subNode:var>
							<node:Expr_Variable>
								<attribute:startLine>
									<scalar:int>10</scalar:int>
								</attribute:startLine>
								<attribute:endLine>
									<scalar:int>10</scalar:int>
								</attribute:endLine>
								<subNode:name>
									<scalar:string>obj</scalar:string>
								</subNode:name>
							</node:Expr_Variable>
						</subNode:var>
						<subNode:name>
							<scalar:string>prop1</scalar:string>
						</subNode:name>
					</node:Expr_PropertyFetch>
				</scalar:array>
			</subNode:exprs>
		</node:Stmt_Echo>
	</scalar:array>
</AST>
